[
    {
        "id": 1,
        "brendAndModel": "Audi A8",
        "imageName": "audiA8",
        "description": "The Audi A8 is a four-door, full-size, luxury sedan manufactured and marketed by the German automaker Audi since 1994. The first two generations employed the Volkswagen Group D platform, with the current generation deriving from the MLB platform."
    },
    {
        "id": 2,
        "brendAndModel": "Ford Focus",
        "imageName": "fordFocus",
        "description": "The Ford Focus is a compact car (C-segment in Europe) manufactured by the Ford Motor Company and created under Alexander Trotman's Ford 2000 plan, which aimed to globalize model development and sell one compact vehicle worldwide. The original Focus was primarily designed by Ford of Europe's German and British teams."
    },
    {
        "id": 3,
        "brendAndModel": "Honda CRV",
        "imageName": "hondaCRV",
        "description": "The Honda CR-V is a compact crossover SUV manufactured by Japanese automaker Honda since 1995 and introduced in the North American market in 1997. It uses the Honda Civic platform with an SUV body design. The CR-V is Honda's mid-range utility vehicle, slotting between the smaller Honda HR-V and the larger North American market Honda Pilot."
    },
    {
        "id": 4,
        "brendAndModel": "Mercedes W245",
        "imageName": "mercedesw245",
        "description": "The Mercedes-Benz B-Class is a subcompact executive MPV (multi-purpose vehicle) manufactured and marketed by Mercedes-Benz since 2005, and now in its third generation. Similar to the A-Class, though larger, and with larger engines, the European New Car Assessment Programme (Euro NCAP) still classifies it as a hatchback."
    },
    {
        "id": 5,
        "brendAndModel": "Toyota RAV4",
        "imageName": "toyotaRAV4",
        "description": "The Toyota RAV4, Hepburn: Toyota Ravufō) is a compact crossover SUV (sport utility vehicle) produced by the Japanese automobile manufacturer Toyota. This was the first compact crossover SUV; it made its debut in Japan and Europe in 1994, and in North America in 1995, being launched in January 1996."
    }
]
